…
``` r
link_british_1950 <- "https://fiaresultsandstatistics.motorsportstats.com/results/1950-british-grand-prix/classification"
british_1950_page <- read_html(link_british_1950)
british_1950_race <- british_1950_page |> 
  html_table()

british_1950_race
```

    ## [[1]]
    ## # A tibble: 21 × 12
    ##    Pos      No Driver   Nat   Team   Laps Time  Gap   Interval   Kph Best    Lap
    ##    <chr> <int> <chr>    <chr> <chr> <int> <chr> <chr> <chr>    <dbl> <chr> <int>
    ##  1 1         2 Nino Fa… Italy Alfa…    70 2:13… ""    ""        146. "1:5…     2
    ##  2 2         3 Luigi F… Italy Alfa…    70 2:13… "+ 2… "+ 2.60…  146. ""       NA
    ##  3 3         4 Reg Par… Grea… Alfa…    70 2:14… "+ 5… "+ 49.4…  145. ""       NA
    ##  4 4        14 Yves Gi… Fran… Auto…    68 2:13… "2 L… "2 Laps"  142. "1:5…    41
    ##  5 5        15 Louis R… Fran… Auto…    68 2:14… "2 L… "+ 1:03…  141. "1:5…    10
    ##  6 6        12 Bob Ger… Grea… Bob …    67 2:13… "3 L… "1 Lap"   140. ""       NA
    ##  7 7        11 Cuth Ha… Grea… Cuth…    67 2:13… "3 L… "+ 0.40…  140. ""       NA
    ##  8 8        16 Philipp… Fran… Auto…    65 2:14… "5 L… "2 Laps"  135. "1:5…    31
    ##  9 9         6 David H… Grea… Scud…    64 2:14… "6 L… "1 Lap"   133. ""       NA
    ## 10 10       10 Joe Fry… Grea… Joe …    64 2:15… "6 L… "+ 56.8…  132. ""       NA
    ## # ℹ 11 more rows
…
Here we are asking `R` to retrieve the “a” html node that contains the
text “Qualifying”, and get the hyperlink of that node, then we paste
that to the url for our main site. We can use the same function as with
race data, to get a tibble of qualifying positions.

``` r
british_1950_qual <- read_html(british_1950_qual_link) |> 
  html_table()

british_1950_qual
```

    ## [[1]]
    ## # A tibble: 21 × 12
    ##      Pos    No Driver   Nat   Team  Laps  Time  Gap   Interval   Kph Best  Lap  
    ##    <int> <int> <chr>    <chr> <chr> <lgl> <chr> <chr> <chr>    <dbl> <lgl> <lgl>
    ##  1     1     2 Nino Fa… Italy Alfa… NA    1:50… ""    ""        151. NA    NA   
    ##  2     2     3 Luigi F… Italy Alfa… NA    1:51… "+ 0… "+ 0.20…  151. NA    NA   
    ##  3     3     1 Juan Ma… Arge… Alfa… NA    1:51… "+ 0… ""        151. NA    NA   
    ##  4     4     4 Reg Par… Grea… Alfa… NA    1:52… "+ 1… "+ 1.20…  149. NA    NA   
    ##  5     5    21 Prince … Thai… Enri… NA    1:52… "+ 1… "+ 0.40…  149. NA    NA   
    ##  6     6    14 Yves Gi… Fran… Auto… NA    1:53… "+ 2… "+ 0.80…  148. NA    NA   
    ##  7     7    17 Eugene … Fran… Auto… NA    1:55… "+ 4… "+ 2.00…  145. NA    NA   
    ##  8     8    20 Emmanue… Swit… Enri… NA    1:55… "+ 5… "+ 0.40…  145. NA    NA   
    ##  9     9    15 Louis R… Fran… Auto… NA    1:56… "+ 5… "+ 0.20…  144. NA    NA   
    ## 10    10     9 Peter W… Grea… Pete… NA    1:56… "+ 5… "+ 0.60…  144. NA    NA   
    ## # ℹ 11 more rows
…
``` r
href_event <- british_1950_page |> 
  html_nodes(xpath = "//a[text() = 'Event Info']") |> 
  html_attr("href")

british_1950_event <- read_html(paste0(link_fia, href_event)) |> 
  html_table()

british_1950_event
```

    ## [[1]]
    ## # A tibble: 23 × 6
    ##      `#` Driver             Nat           Team                Car         Engine
    ##    <int> <chr>              <chr>         <chr>               <chr>       <chr> 
    ##  1     1 Juan Manuel Fangio Argentina     Alfa Romeo SpA      Alfa Romeo… Alfa …
    ##  2     2 Nino Farina        Italy         Alfa Romeo SpA      Alfa Romeo… Alfa …
    ##  3     3 Luigi Fagioli      Italy         Alfa Romeo SpA      Alfa Romeo… Alfa …
    ##  4     4 Reg Parnell        Great Britain Alfa Romeo SpA      Alfa Romeo… Alfa …
    ##  5     5 David Murray       Great Britain Scuderia Ambrosiana Maserati 4… Maser…
    ##  6     6 David Hampshire    Great Britain Scuderia Ambrosiana Maserati 4… Maser…
    ##  7     8 Leslie Johnson     Great Britain T A S O Mathieson   ERA E       ERA   
    ##  8     9 Peter Walker       Great Britain Peter Walker        ERA E       ERA   
    ##  9     9 Tony Rolt          Great Britain Peter Walker        ERA E       ERA   
    ## 10    10 Joe Fry            Great Britain Joe Fry             Maserati 4… Maser…
    ## # ℹ 13 more rows
…
lap_chart_link <- paste0(link_fia, href2)
lap_chart_link
```

    ## [1] "https://fiaresultsandstatistics.motorsportstats.com/results/1950-british-grand-prix/session-facts/4817f4b9-6d84-4ea2-9c5b-ff9dcff6f2e7?fact=LapChart"

``` r
read_html(lap_chart_link) |> 
  html_table()
```

    ## [[1]]
    ## # A tibble: 71 × 1
    ##    Pos. 
    ##    <chr>
    ##  1 Grid 
    ##  2 Lap 1
    ##  3 Lap 2
    ##  4 Lap 3
    ##  5 Lap 4
    ##  6 Lap 5
    ##  7 Lap 6
    ##  8 Lap 7
    ##  9 Lap 8
    ## 10 Lap 9
    ## # ℹ 61 more rows
…
``` r
total_drivers <- read_html(lap_chart_link) |> 
      html_nodes(xpath = "//div[@class='_3DVzL']") |> 
      html_text() |> tail(1) |> as.numeric()
# Make the character vector a matrix of total_drivers columns, just realize that not all charts 
lap_chart <- as_tibble(matrix(my_numbers, ncol = total_drivers)) 

lap_chart
```

    ## # A tibble: 71 × 21
    ##    V1    V2    V3    V4    V5    V6    V7    V8    V9    V10   V11   V12   V13  
    ##    <chr> <chr> <chr> <chr> <chr> <chr> <chr> <chr> <chr> <chr> <chr> <chr> <chr>
    ##  1 2     3     1     4     21    14    17    20    15    19    8     12    16   
    ##  2 2     3     1     4     21    20    17    14    15    16    12    11    6    
    ##  3 2     3     1     4     21    20    17    14    15    16    12    11    6    
    ##  4 2     3     1     4     21    17    20    14    15    16    12    11    6    
    ##  5 2     3     1     4     21    17    20    14    15    16    12    11    6    
    ##  6 2     3     1     4     21    17    20    14    15    16    12    11    6    
    ##  7 2     3     1     4     21    17    20    14    15    16    12    11    6    
    ##  8 2     3     1     4     21    17    20    14    15    16    12    11    6    
    ##  9 2     3     1     4     21    17    20    14    15    16    12    11    6    
    ## 10 2     3     1     4     21    20    14    15    16    12    11    6     5    
    ## # ℹ 61 more rows
    ## # ℹ 8 more variables: V14 <chr>, V15 <chr>, V16 <chr>, V17 <chr>, V18 <chr>,
    ## #   V19 <chr>, V20 <chr>, V21 <chr>
…
